\select@language {italian}
\select@language {italian}
\contentsline {section}{\numberline {1}Introduzione}{3}{section.1}
\contentsline {section}{\numberline {2}Tecnologie utilizzate}{3}{section.2}
\contentsline {section}{\numberline {3}Modularizzazione del progetto}{3}{section.3}
\contentsline {section}{\numberline {4}File Transfer Protocol}{3}{section.4}
\contentsline {section}{\numberline {5}FTP Server}{4}{section.5}
\contentsline {section}{\numberline {6}FTP Client}{8}{section.6}
\contentsline {section}{\numberline {7}Possibili sviluppi futuri}{9}{section.7}
