\relax 
\providecommand\hyper@newdestlabel[2]{}
\providecommand\HyperFirstAtBeginDocument{\AtBeginDocument}
\HyperFirstAtBeginDocument{\ifx\hyper@anchor\@undefined
\global\let\oldcontentsline\contentsline
\gdef\contentsline#1#2#3#4{\oldcontentsline{#1}{#2}{#3}}
\global\let\oldnewlabel\newlabel
\gdef\newlabel#1#2{\newlabelxx{#1}#2}
\gdef\newlabelxx#1#2#3#4#5#6{\oldnewlabel{#1}{{#2}{#3}}}
\AtEndDocument{\ifx\hyper@anchor\@undefined
\let\contentsline\oldcontentsline
\let\newlabel\oldnewlabel
\fi}
\fi}
\global\let\hyper@last\relax 
\gdef\HyperFirstAtBeginDocument#1{#1}
\providecommand\HyField@AuxAddToFields[1]{}
\providecommand\HyField@AuxAddToCoFields[2]{}
\select@language{italian}
\@writefile{toc}{\select@language{italian}}
\@writefile{lof}{\select@language{italian}}
\@writefile{lot}{\select@language{italian}}
\select@language{italian}
\@writefile{toc}{\select@language{italian}}
\@writefile{lof}{\select@language{italian}}
\@writefile{lot}{\select@language{italian}}
\@writefile{toc}{\contentsline {section}{\numberline {1}Introduzione}{3}{section.1}}
\@writefile{toc}{\contentsline {section}{\numberline {2}Tecnologie utilizzate}{3}{section.2}}
\@writefile{toc}{\contentsline {section}{\numberline {3}Modularizzazione del progetto}{3}{section.3}}
\@writefile{toc}{\contentsline {section}{\numberline {4}File Transfer Protocol}{3}{section.4}}
\@writefile{toc}{\contentsline {section}{\numberline {5}FTP Server}{4}{section.5}}
\gdef \LT@i {\LT@entry 
    {1}{64.54788pt}\LT@entry 
    {1}{150.39789pt}\LT@entry 
    {1}{133.1521pt}}
\@writefile{toc}{\contentsline {section}{\numberline {6}FTP Client}{8}{section.6}}
\@writefile{toc}{\contentsline {section}{\numberline {7}Possibili sviluppi futuri}{9}{section.7}}
